<svg xmlns="http://www.w3.org/2000/svg" width="28" height="28" viewBox="0 0 28 28">
  <g id="Group_5255" data-name="Group 5255" transform="translate(0 1.633)">
    <rect id="Rectangle_613" data-name="Rectangle 613" width="28" height="28" transform="translate(0 -1.633)" fill="none"/>
    <g id="Group_5264" data-name="Group 5264" transform="translate(-1 -1.799)">
      <path id="Path_1993" data-name="Path 1993" d="M152,32v6.076h6.076" transform="translate(-131.117 -28.833)" fill="none" stroke="#fff" stroke-linecap="round" stroke-linejoin="round" stroke-width="1"/>
      <path id="Path_1994" data-name="Path 1994" d="M61.02,52.832h3.472a.868.868,0,0,0,.868-.868V38.076L59.284,32H48.868a.868.868,0,0,0-.868.868v5.895" transform="translate(-38.401 -28.833)" fill="none" stroke="#fff" stroke-linecap="round" stroke-linejoin="round" stroke-width="1"/>
      <g id="Group_5256" data-name="Group 5256" transform="translate(4 11.996)">
        <ellipse id="Ellipse_61" data-name="Ellipse 61" cx="0.98" cy="0.981" rx="0.98" ry="0.981" transform="translate(3.922 12.116)" fill="#f5f5f5"/>
        <ellipse id="Ellipse_62" data-name="Ellipse 62" cx="0.98" cy="0.981" rx="0.98" ry="0.981" transform="translate(11.766 12.116)" fill="#f5f5f5"/>
        <path id="Path_942" data-name="Path 942" d="M10.463,34.873H23.348l-1.9,6.636a1.142,1.142,0,0,1-1.106.833h-6.88a1.142,1.142,0,0,1-1.106-.833l-2.6-9.092A.575.575,0,0,0,9.207,32H8" transform="translate(-8 -32)" fill="none" stroke="#fff" stroke-linecap="round" stroke-linejoin="round" stroke-width="1"/>
      </g>
    </g>
  </g>
</svg>
